-------------------------------------------------------------------------------
Test set: guru.springframework.sfgpetclinic.controllers.PetControllerTest
-------------------------------------------------------------------------------
Tests run: 7, Failures: 0, Errors: 0, Skipped: 0, Time elapsed: 0.477 s - in guru.springframework.sfgpetclinic.controllers.PetControllerTest
